simavr_trace/trace.out.vcd
$version
	Simulavr VCD dump file generator
$end
$timescale 1ns $end
$scope module UART0 $end
$var wire 8 0 UDR $end
$var wire 1 1 UDR_R $end
$var wire 1 2 UDR_W $end
$upscope $end
$enddefinitions $end
#0
$dumpvars
b11111110 0
01
02
$end
#198431620
12
b01001101 0
#198431682
02
#198515010
12
b01110101 0
#198515072
02
#199443460
12
b01101011 0
#199443522
02
#200475140
12
b01101111 0
#200475202
02
#201506820
12
b01100100 0
#201506882
02
#202538500
12
b01101001 0
#202538562
02
#203570180
12
b01101011 0
#203570242
02
#204601860
12
b00100001 0
#204601922
02
#205633540
12
#205633602
02
#206665344
12
b00001101 0
#206665406
02
#207696962
12
b00001010 0
#207697024
02
#406102480
12
b01001101 0
#406102542
02
#406192070
12
b01110101 0
#406192132
02
#407120520
12
b01101011 0
#407120582
02
#408152200
12
b01101111 0
#408152262
02
#409183880
12
b01100100 0
#409183942
02
#410215560
12
b01101001 0
#410215622
02
#411247240
12
b01101011 0
#411247302
02
#412278920
12
b00100001 0
#412278982
02
#413310600
12
#413310662
02
#414342404
12
b00001101 0
#414342466
02
#415374022
12
b00001010 0
#415374084
02
#613779540
12
b01001101 0
#613779602
02
#613869440
12
b01110101 0
#613869502
02
#614797890
12
b01101011 0
#614797952
02
#615829570
12
b01101111 0
#615829632
02
#616861250
12
b01100100 0
#616861312
02
#617892930
12
b01101001 0
#617892992
02
#618924610
12
b01101011 0
#618924672
02
#619956290
12
b00100001 0
#619956352
02
#620987970
12
#620988032
02
#622019464
12
b00001101 0
#622019526
02
#623051392
12
b00001010 0
#623051454
02
#821456910
12
b01001101 0
#821456972
02
#821546500
12
b01110101 0
#821546562
02
#822474950
12
b01101011 0
#822475012
02
#823506630
12
b01101111 0
#823506692
02
#824538310
12
b01100100 0
#824538372
02
#825569990
12
b01101001 0
#825570052
02
#826601670
12
b01101011 0
#826601732
02
#827633350
12
b00100001 0
#827633412
02
#828665030
12
#828665092
02
#829696834
12
b00001101 0
#829696896
02
#830728452
12
b00001010 0
#830728514
02
#1029133970
12
b01001101 0
#1029134032
02
#1029223560
12
b01110101 0
#1029223622
02
#1030152320
12
b01101011 0
#1030152382
02
#1031184000
12
b01101111 0
#1031184062
02
#1032215680
12
b01100100 0
#1032215742
02
#1033247360
12
b01101001 0
#1033247422
02
#1034279040
12
b01101011 0
#1034279102
02
#1035310720
12
b00100001 0
#1035310782
02
#1036342400
12
#1036342462
02
#1037373894
12
b00001101 0
#1037373956
02
#1038405512
12
b00001010 0
#1038405574
02
#1236811030
12
b01001101 0
#1236811092
02
#1236900930
12
b01110101 0
#1236900992
02
#1237829380
12
b01101011 0
#1237829442
02
#1238861060
12
b01101111 0
#1238861122
02
#1239892740
12
b01100100 0
#1239892802
02
#1240924420
12
b01101001 0
#1240924482
02
#1241956100
12
b01101011 0
#1241956162
02
#1242987780
12
b00100001 0
#1242987842
02
#1244019460
12
#1244019522
02
#1245051264
12
b00001101 0
#1245051326
02
#1246082882
12
b00001010 0
#1246082944
02
#1444488400
12
b01001101 0
#1444488462
02
#1444577990
12
b01110101 0
#1444578052
02
#1445506440
12
b01101011 0
#1445506502
02
#1446538120
12
b01101111 0
#1446538182
02
#1447569800
12
b01100100 0
#1447569862
02
#1448601480
12
b01101001 0
#1448601542
02
#1449633160
12
b01101011 0
#1449633222
02
#1450664840
12
b00100001 0
#1450664902
02
#1451696520
12
#1451696582
02
#1452728324
12
b00001101 0
#1452728386
02
#1453759942
12
b00001010 0
#1453760004
02
#1652165460
12
b01001101 0
#1652165522
02
#1652255360
12
b01110101 0
#1652255422
02
#1653183810
12
b01101011 0
#1653183872
02
#1654215490
12
b01101111 0
#1654215552
02
#1655247170
12
b01100100 0
#1655247232
02
#1656278850
12
b01101001 0
#1656278912
02
#1657310530
12
b01101011 0
#1657310592
02
#1658342210
12
b00100001 0
#1658342272
02
#1659373890
12
#1659373952
02
#1660405384
12
b00001101 0
#1660405446
02
#1661437312
12
b00001010 0
#1661437374
02
#1859842830
12
b01001101 0
#1859842892
02
#1859932420
12
b01110101 0
#1859932482
02
#1860860870
12
b01101011 0
#1860860932
02
#1861892550
12
b01101111 0
#1861892612
02
#1862924230
12
b01100100 0
#1862924292
02
#1863955910
12
b01101001 0
#1863955972
02
#1864987590
12
b01101011 0
#1864987652
02
#1866019270
12
b00100001 0
#1866019332
02
#1867050950
12
#1867051012
02
#1868082754
12
b00001101 0
#1868082816
02
#1869114372
12
b00001010 0
#1869114434
02
#2067519890
12
b01001101 0
#2067519952
02
#2067609480
12
b01110101 0
#2067609542
02
#2068538240
12
b01101011 0
#2068538302
02
#2069569920
12
b01101111 0
#2069569982
02
#2070601600
12
b01100100 0
#2070601662
02
#2071633280
12
b01101001 0
#2071633342
02
#2072664960
12
b01101011 0
#2072665022
02
#2073696640
12
b00100001 0
#2073696702
02
#2074728320
12
#2074728382
02
#2075759814
12
b00001101 0
#2075759876
02
#2076791432
12
b00001010 0
#2076791494
02
#2275196950
12
b01001101 0
#2275197012
02
#2275286850
12
b01110101 0
#2275286912
02
#2276215300
12
b01101011 0
#2276215362
02
#2277246980
12
b01101111 0
#2277247042
02
#2278278660
12
b01100100 0
#2278278722
02
#2279310340
12
b01101001 0
#2279310402
02
#2280342020
12
b01101011 0
#2280342082
02
#2281373700
12
b00100001 0
#2281373762
02
#2282405380
12
#2282405442
02
#2283437184
12
b00001101 0
#2283437246
02
#2284468802
12
b00001010 0
#2284468864
02
#2482874320
12
b01001101 0
#2482874382
02
#2482963910
12
b01110101 0
#2482963972
02
#2483892360
12
b01101011 0
#2483892422
02
#2484924040
12
b01101111 0
#2484924102
02
#2485955720
12
b01100100 0
#2485955782
02
#2486987400
12
b01101001 0
#2486987462
02
#2488019080
12
b01101011 0
#2488019142
02
#2489050760
12
b00100001 0
#2489050822
02
#2490082440
12
#2490082502
02
#2491114244
12
b00001101 0
#2491114306
02
#2492145862
12
b00001010 0
#2492145924
02
